%YAML 1.1
%TAG !u! tag:unity3d.com,2011:
--- !u!1045 &1
EditorBuildSettings:
  m_ObjectHideFlags: 0
  serializedVersion: 2
  m_Scenes:
  - enabled: 1
    path: Assets/TacticalMap.unity
    guid: 416a71d8201bdb747a387f8e3aea730c
  - enabled: 1
    path: Assets/RegionMap.unity
    guid: 9da51729c6895ef4184035fedbf8b941
